[gd_scene load_steps=4 format=2]

[ext_resource path="res://scenes/player/FlakTurret.gd" type="Script" id=1]
[ext_resource path="res://scenes/player/minigun_turret.tscn" type="PackedScene" id=2]
[ext_resource path="res://sfx/yle/flak-gun-shot.wav" type="AudioStream" id=3]

[node name="FlakTurret" instance=ExtResource( 2 )]
script = ExtResource( 1 )
fire_rate = 1.0

[node name="SFX" parent="." index="1"]
stream = ExtResource( 3 )
