[gd_scene load_steps=5 format=2]

[ext_resource path="res://scenes/enemies/anti-ship-missile.gd" type="Script" id=1]
[ext_resource path="res://scenes/effects/Explosion.tscn" type="PackedScene" id=2]
[ext_resource path="res://sprites/Enemies/anti-ship-missile.png" type="Texture" id=3]

[sub_resource type="CapsuleShape2D" id=1]
radius = 6.7705
height = 21.4309

[node name="Anti-Ship-Missile" type="KinematicBody2D"]
collision_mask = 4
script = ExtResource( 1 )
speed = 250

[node name="Sprite" type="Sprite" parent="."]
position = Vector2( 0.556808, 0.556812 )
texture = ExtResource( 3 )

[node name="CollisionShape2D" type="CollisionShape2D" parent="."]
shape = SubResource( 1 )

[node name="CPUParticles2D" type="CPUParticles2D" parent="."]
position = Vector2( 0.111362, 11.4703 )
amount = 50
lifetime = 2.0
local_coords = false
gravity = Vector2( 0, 0 )
angle = 45.0
angle_random = 1.0
scale_amount = 5.0

[node name="Explosion" parent="." instance=ExtResource( 2 )]

[node name="DeathTimer" type="Timer" parent="."]
wait_time = 0.5

[connection signal="hit" from="." to="." method="_on_AntiShipMissile_hit"]
[connection signal="timeout" from="DeathTimer" to="." method="_on_DeathTimer_timeout"]
