[gd_scene load_steps=5 format=2]

[ext_resource path="res://sprites/Enemies/helicopter.png" type="Texture" id=1]
[ext_resource path="res://scenes/enemies/Helicopter.gd" type="Script" id=2]
[ext_resource path="res://scenes/effects/Fire.tscn" type="PackedScene" id=3]

[sub_resource type="RectangleShape2D" id=1]
extents = Vector2( 61.981, 22.0641 )

[node name="Helicopter" type="KinematicBody2D"]
rotation = -0.436332
scale = Vector2( 0.5, 0.5 )
collision_layer = 8
collision_mask = 2
script = ExtResource( 2 )

[node name="Sprite" type="Sprite" parent="."]
position = Vector2( 3.31226, 6.09426 )
texture = ExtResource( 1 )

[node name="CollisionShape2D" type="CollisionShape2D" parent="."]
position = Vector2( 0.114143, 0.313589 )
shape = SubResource( 1 )

[node name="Aim" type="RayCast2D" parent="."]
position = Vector2( -15.6324, 11.8812 )
enabled = true
cast_to = Vector2( -1000, 0 )
collision_mask = 4

[node name="ResetTimer" type="Timer" parent="."]
wait_time = 10.0

[node name="Fire" parent="." instance=ExtResource( 3 )]
position = Vector2( -14.2365, -10.4616 )
emitting = false
[connection signal="hit" from="." to="." method="_on_Helicopter_hit"]
[connection signal="timeout" from="ResetTimer" to="." method="_on_ResetTimer_timeout"]
