[gd_scene load_steps=6 format=2]

[ext_resource path="res://scenes/menus/MenuBase.tscn" type="PackedScene" id=1]
[ext_resource path="res://fonts/TextFont.tres" type="DynamicFont" id=2]
[ext_resource path="res://scenes/menus/UI_Panel.tscn" type="PackedScene" id=3]
[ext_resource path="res://fonts/CreditsText.tres" type="DynamicFont" id=4]
[ext_resource path="res://scenes/menus/CreditsMenu.gd" type="Script" id=6]

[node name="Credits" instance=ExtResource( 1 )]
script = ExtResource( 6 )

[node name="ColorRect" parent="." index="1"]
margin_left = 14.8325
margin_top = 4.23785
margin_right = 1944.83
margin_bottom = 1096.24

[node name="Panel" parent="." index="2" instance=ExtResource( 3 )]

[node name="Label" type="Label" parent="Panel" index="2"]
margin_left = 387.763
margin_top = 14.8325
margin_right = 627.763
margin_bottom = 64.8325
custom_fonts/font = ExtResource( 2 )
text = "Credits:"
__meta__ = {
"_edit_use_anchors_": false
}

[node name="Label2" type="RichTextLabel" parent="Panel" index="3"]
margin_left = 85.0
margin_top = 123.941
margin_right = 2515.0
margin_bottom = 707.941
custom_fonts/normal_font = ExtResource( 4 )
bbcode_enabled = true
bbcode_text = "Gun and explosion SFX:
- Yle ([url]https://freesound.org/people/YleArkisto[/url]), CC-BY 3.0

Background music
- cinameng ([url]https://opengameart.org/users/cinameng[/url]), CC-BY 4.0

Code, sprite work:
- Samsai

Written using Godot Engine ([url]https://godotengine.org[/url])
- Godot Engine Team, [url]https://godotengine.org/license[/url]

FreeType 
- Portions of this software are copyright © 2021 
  The FreeType Project (www.freetype.org). All rights reserved. 

Ideas and feedback
- Viewers of the coding livestreams this was largely coded on
"
text = "Gun and explosion SFX:
- Yle (https://freesound.org/people/YleArkisto), CC-BY 3.0

Background music
- cinameng (https://opengameart.org/users/cinameng), CC-BY 4.0

Code, sprite work:
- Samsai

Written using Godot Engine (https://godotengine.org)
- Godot Engine Team, https://godotengine.org/license

FreeType 
- Portions of this software are copyright © 2021 
  The FreeType Project (www.freetype.org). All rights reserved. 

Ideas and feedback
- Viewers of the coding livestreams this was largely coded on
"
