[gd_scene load_steps=2 format=2]

[ext_resource path="res://sprites/effects/cloud.png" type="Texture" id=1]

[node name="Clouds" type="CPUParticles2D"]
amount = 10
lifetime = 50.0
texture = ExtResource( 1 )
emission_shape = 2
emission_rect_extents = Vector2( 200, 200 )
direction = Vector2( -1, 0 )
spread = 0.0
gravity = Vector2( 0, 0 )
initial_velocity = 100.0
initial_velocity_random = 0.3
scale_amount = 5.0
scale_amount_random = 0.5
hue_variation_random = 1.0
